%YAML 1.1
%TAG !u! tag:unity3d.com,2011:
--- !u!74 &7400000
AnimationClip:
  m_ObjectHideFlags: 0
  m_CorrespondingSourceObject: {fileID: 0}
  m_PrefabInstance: {fileID: 0}
  m_PrefabAsset: {fileID: 0}
  m_Name: Magnet_VIBRATION
  serializedVersion: 6
  m_Legacy: 1
  m_Compressed: 0
  m_UseHighQualityCurve: 1
  m_RotationCurves:
  - curve:
      serializedVersion: 2
      m_Curve:
      - serializedVersion: 3
        time: 0
        value: {x: 0.00000008146034, y: 6.123234e-17, z: 6.1232336e-17, w: 1}
        inSlope: {x: -1.6711965e-10, y: -0.3140896, z: 0.000000025585848, w: -0.0020542145}
        outSlope: {x: -1.6711965e-10, y: -0.3140896, z: 0.000000025585848, w: -0.0020542145}
        tangentMode: 0
        weightedMode: 0
        inWeight: {x: 0.33333334, y: 0.33333334, z: 0.33333334, w: 0.33333334}
        outWeight: {x: 0.33333334, y: 0.33333334, z: 0.33333334, w: 0.33333334}
      - serializedVersion: 3
        time: 0.041666668
        value: {x: 0.00000008145338, y: -0.013087067, z: 0.0000000010660771, w: 0.9999144}
        inSlope: {x: -3.3492142e-10, y: -0.31411695, z: 0.000000025588076, w: -0.0041120052}
        outSlope: {x: -3.3492142e-10, y: -0.31411695, z: 0.000000025588076, w: -0.0041120052}
        tangentMode: 0
        weightedMode: 0
        inWeight: {x: 0.33333334, y: 0.33333334, z: 0.33333334, w: 0.33333334}
        outWeight: {x: 0.33333334, y: 0.33333334, z: 0.33333334, w: 0.33333334}
      - serializedVersion: 3
        time: 0.083333336
        value: {x: 0.00000008143243, y: -0.026176414, z: 0.0000000021323399, w: 0.99965733}
        inSlope: {x: 8.3559853e-11, y: 0.15704483, z: -0.000000012792927, w: 0.0010271077}
        outSlope: {x: 8.3559853e-11, y: 0.15704483, z: -0.000000012792927, w: 0.0010271077}
        tangentMode: 0
        weightedMode: 0
        inWeight: {x: 0.33333334, y: 0.33333334, z: 0.33333334, w: 0.33333334}
        outWeight: {x: 0.33333334, y: 0.33333334, z: 0.33333334, w: 0.33333334}
      - serializedVersion: 3
        time: 0.16666667
        value: {x: 0.00000008143243, y: 0.02617628, z: -0.0000000021323285, w: 0.99965733}
        inSlope: {x: -9.208634e-12, y: -0.0523614, z: 0.0000000042653756, w: -0.00011372566}
        outSlope: {x: -9.208634e-12, y: -0.0523614, z: 0.0000000042653756, w: -0.00011372566}
        tangentMode: 0
        weightedMode: 0
        inWeight: {x: 0.33333334, y: 0.33333334, z: 0.33333334, w: 0.33333334}
        outWeight: {x: 0.33333334, y: 0.33333334, z: 0.33333334, w: 0.33333334}
      - serializedVersion: 3
        time: 0.25
        value: {x: 0.00000008141073, y: -0.034898702, z: 0.0000000028428604, w: 0.9993909}
        inSlope: {x: 9.20819e-12, y: 0.05236131, z: -0.0000000042653703, w: 0.00011372054}
        outSlope: {x: 9.20819e-12, y: 0.05236131, z: -0.0000000042653703, w: 0.00011372054}
        tangentMode: 0
        weightedMode: 0
        inWeight: {x: 0.33333334, y: 0.33333334, z: 0.33333334, w: 0.33333334}
        outWeight: {x: 0.33333334, y: 0.33333334, z: 0.33333334, w: 0.33333334}
      - serializedVersion: 3
        time: 0.33333334
        value: {x: 0.00000008141073, y: 0.03489869, z: -0.0000000028428593, w: 0.9993909}
        inSlope: {x: -3.717565e-11, y: -0.104720235, z: 0.000000008530549, w: -0.00045704842}
        outSlope: {x: -3.717565e-11, y: -0.104720235, z: 0.000000008530549, w: -0.00045704842}
        tangentMode: 0
        weightedMode: 0
        inWeight: {x: 0.33333334, y: 0.33333334, z: 0.33333334, w: 0.33333334}
        outWeight: {x: 0.33333334, y: 0.33333334, z: 0.33333334, w: 0.33333334}
      - serializedVersion: 3
        time: 0.4166667
        value: {x: 0.00000008134871, y: -0.052335266, z: 0.000000004263249, w: 0.99862957}
        inSlope: {x: 3.7176595e-11, y: 0.10472059, z: -0.000000008530574, w: 0.0004570596}
        outSlope: {x: 3.7176595e-11, y: 0.10472059, z: -0.000000008530574, w: 0.0004570596}
        tangentMode: 0
        weightedMode: 0
        inWeight: {x: 0.33333334, y: 0.33333334, z: 0.33333334, w: 0.33333334}
        outWeight: {x: 0.33333334, y: 0.33333334, z: 0.33333334, w: 0.33333334}
      - serializedVersion: 3
        time: 0.45833334
        value: {x: 0.00000008146034, y: 0.000000012461114, z: -9.538544e-16, w: 1}
        inSlope: {x: 0, y: 1.2560453, z: -0.00000010231789, w: 0}
        outSlope: {x: 0, y: 1.2560453, z: -0.00000010231789, w: 0}
        tangentMode: 0
        weightedMode: 0
        inWeight: {x: 0.33333334, y: 0.33333334, z: 0.33333334, w: 0.33333334}
        outWeight: {x: 0.33333334, y: 0.33333334, z: 0.33333334, w: 0.33333334}
      - serializedVersion: 3
        time: 0.5
        value: {x: 0.00000008134871, y: 0.052335158, z: -0.00000000426324, w: 0.99862957}
        inSlope: {x: -3.7176595e-11, y: -0.10472, z: 0.000000008530524, w: -0.0004570596}
        outSlope: {x: -3.7176595e-11, y: -0.10472, z: 0.000000008530524, w: -0.0004570596}
        tangentMode: 0
        weightedMode: 0
        inWeight: {x: 0.33333334, y: 0.33333334, z: 0.33333334, w: 0.33333334}
        outWeight: {x: 0.33333334, y: 0.33333334, z: 0.33333334, w: 0.33333334}
      - serializedVersion: 3
        time: 0.5416667
        value: {x: 0.000000081457245, y: -0.008726697, z: 7.1087985e-10, w: 0.9999619}
        inSlope: {x: -0.0000000010415131, y: -1.4650948, z: 0.00000011934713, w: -0.012785906}
        outSlope: {x: -0.0000000010415131, y: -1.4650948, z: 0.00000011934713, w: -0.012785906}
        tangentMode: 0
        weightedMode: 0
        inWeight: {x: 0.33333334, y: 0.33333334, z: 0.33333334, w: 0.33333334}
        outWeight: {x: 0.33333334, y: 0.33333334, z: 0.33333334, w: 0.33333334}
      - serializedVersion: 3
        time: 0.5833334
        value: {x: 0.000000081261916, y: -0.06975614, z: 0.0000000056823595, w: 0.9975641}
        inSlope: {x: 3.7178927e-11, y: 0.10471994, z: -0.000000008530513, w: 0.0004570894}
        outSlope: {x: 3.7178927e-11, y: 0.10471994, z: -0.000000008530513, w: 0.0004570894}
        tangentMode: 0
        weightedMode: 0
        inWeight: {x: 0.33333334, y: 0.33333334, z: 0.33333334, w: 0.33333334}
        outWeight: {x: 0.33333334, y: 0.33333334, z: 0.33333334, w: 0.33333334}
      - serializedVersion: 3
        time: 0.625
        value: {x: 0.00000008146034, y: -0.00000013315805, z: 1.0908333e-14, w: 1}
        inSlope: {x: 3.330669e-15, y: 1.6741482, z: -0.00000013637668, w: 0.000000040978193}
        outSlope: {x: 3.330669e-15, y: 1.6741482, z: -0.00000013637668, w: 0.000000040978193}
        tangentMode: 0
        weightedMode: 0
        inWeight: {x: 0.33333334, y: 0.33333334, z: 0.33333334, w: 0.33333334}
        outWeight: {x: 0.33333334, y: 0.33333334, z: 0.33333334, w: 0.33333334}
      - serializedVersion: 3
        time: 0.6666667
        value: {x: 0.000000081261916, y: 0.06975617, z: -0.0000000056823617, w: 0.9975641}
        inSlope: {x: -3.7175596e-11, y: -0.10471928, z: 0.0000000085304706, w: -0.00045704842}
        outSlope: {x: -3.7175596e-11, y: -0.10471928, z: 0.0000000085304706, w: -0.00045704842}
        tangentMode: 0
        weightedMode: 0
        inWeight: {x: 0.33333334, y: 0.33333334, z: 0.33333334, w: 0.33333334}
        outWeight: {x: 0.33333334, y: 0.33333334, z: 0.33333334, w: 0.33333334}
      - serializedVersion: 3
        time: 0.7083334
        value: {x: 0.000000081457245, y: -0.008726744, z: 7.1088363e-10, w: 0.9999619}
        inSlope: {x: -0.0000000013385819, y: -1.8829386, z: 0.00000015338483, w: -0.016432343}
        outSlope: {x: -0.0000000013385819, y: -1.8829386, z: 0.00000015338483, w: -0.016432343}
        tangentMode: 0
        weightedMode: 0
        inWeight: {x: 0.33333334, y: 0.33333334, z: 0.33333334, w: 0.33333334}
        outWeight: {x: 0.33333334, y: 0.33333334, z: 0.33333334, w: 0.33333334}
      - serializedVersion: 3
        time: 0.75
        value: {x: 0.00000008115037, y: -0.08715534, z: 0.0000000070997044, w: 0.9961947}
        inSlope: {x: 3.7170267e-11, y: 0.104720056, z: -0.000000008530527, w: 0.00045698136}
        outSlope: {x: 3.7170267e-11, y: 0.104720056, z: -0.000000008530527, w: 0.00045698136}
        tangentMode: 0
        weightedMode: 0
        inWeight: {x: 0.33333334, y: 0.33333334, z: 0.33333334, w: 0.33333334}
        outWeight: {x: 0.33333334, y: 0.33333334, z: 0.33333334, w: 0.33333334}
      - serializedVersion: 3
        time: 0.7916667
        value: {x: 0.00000008146034, y: 0.000000041582776, z: -3.326115e-15, w: 1}
        inSlope: {x: 0, y: 2.0917244, z: -0.00000017039261, w: 0.00000071525574}
        outSlope: {x: 0, y: 2.0917244, z: -0.00000017039261, w: 0.00000071525574}
        tangentMode: 0
        weightedMode: 0
        inWeight: {x: 0.33333334, y: 0.33333334, z: 0.33333334, w: 0.33333334}
        outWeight: {x: 0.33333334, y: 0.33333334, z: 0.33333334, w: 0.33333334}
      - serializedVersion: 3
        time: 0.8333334
        value: {x: 0.00000008115037, y: 0.08715512, z: -0.000000007099686, w: 0.9961948}
        inSlope: {x: -3.7170267e-11, y: -0.10472214, z: 0.000000008530698, w: -0.00045698136}
        outSlope: {x: -3.7170267e-11, y: -0.10472214, z: 0.000000008530698, w: -0.00045698136}
        tangentMode: 0
        weightedMode: 0
        inWeight: {x: 0.33333334, y: 0.33333334, z: 0.33333334, w: 0.33333334}
        outWeight: {x: 0.33333334, y: 0.33333334, z: 0.33333334, w: 0.33333334}
      - serializedVersion: 3
        time: 0.875
        value: {x: 0.000000081457245, y: -0.008726669, z: 7.108775e-10, w: 0.9999619}
        inSlope: {x: -0.0000000016351231, y: -2.300198, z: 0.00000018737495, w: -0.020073578}
        outSlope: {x: -0.0000000016351231, y: -2.300198, z: 0.00000018737495, w: -0.020073578}
        tangentMode: 0
        weightedMode: 0
        inWeight: {x: 0.33333334, y: 0.33333334, z: 0.33333334, w: 0.33333334}
        outWeight: {x: 0.33333334, y: 0.33333334, z: 0.33333334, w: 0.33333334}
      - serializedVersion: 3
        time: 0.9166667
        value: {x: 0.00000008101411, y: -0.104528025, z: 0.000000008514889, w: 0.994522}
        inSlope: {x: 3.7175596e-11, y: 0.10472119, z: -0.00000000853062, w: 0.00045704842}
        outSlope: {x: 3.7175596e-11, y: 0.10472119, z: -0.00000000853062, w: 0.00045704842}
        tangentMode: 0
        weightedMode: 0
        inWeight: {x: 0.33333334, y: 0.33333334, z: 0.33333334, w: 0.33333334}
        outWeight: {x: 0.33333334, y: 0.33333334, z: 0.33333334, w: 0.33333334}
      - serializedVersion: 3
        time: 0.9583334
        value: {x: 0.00000008146034, y: 0.000000099853175, z: -8.0728415e-15, w: 1}
        inSlope: {x: -9.2814645e-14, y: 2.5086722, z: -0.00000020435729, w: -0.00000008940697}
        outSlope: {x: -9.2814645e-14, y: 2.5086722, z: -0.00000020435729, w: -0.00000008940697}
        tangentMode: 0
        weightedMode: 0
        inWeight: {x: 0.33333334, y: 0.33333334, z: 0.33333334, w: 0.33333334}
        outWeight: {x: 0.33333334, y: 0.33333334, z: 0.33333334, w: 0.33333334}
      - serializedVersion: 3
        time: 1
        value: {x: 0.0000000810141, y: 0.104527935, z: -0.000000008514881, w: 0.994522}
        inSlope: {x: -0.0000000013396129, y: 0.62802196, z: -0.00000005115888, w: -0.016445313}
        outSlope: {x: -0.0000000013396129, y: 0.62802196, z: -0.00000005115888, w: -0.016445313}
        tangentMode: 0
        weightedMode: 0
        inWeight: {x: 0.33333334, y: 0.33333334, z: 0.33333334, w: 0.33333334}
        outWeight: {x: 0.33333334, y: 0.33333334, z: 0.33333334, w: 0.33333334}
      - serializedVersion: 3
        time: 1.0416667
        value: {x: 0.00000008134871, y: 0.052335057, z: -0.000000004263232, w: 0.99862957}
        inSlope: {x: 0.0000000053548996, y: -1.2543347, z: 0.000000102178525, w: 0.06573622}
        outSlope: {x: 0.0000000053548996, y: -1.2543347, z: 0.000000102178525, w: 0.06573622}
        tangentMode: 0
        weightedMode: 0
        inWeight: {x: 0.33333334, y: 0.33333334, z: 0.33333334, w: 0.33333334}
        outWeight: {x: 0.33333334, y: 0.33333334, z: 0.33333334, w: 0.33333334}
      - serializedVersion: 3
        time: 1.0833334
        value: {x: 0.00000008146034, y: 6.123234e-17, z: 6.1232336e-17, w: 1}
        inSlope: {x: 0.0000000026792035, y: -1.2560426, z: 0.000000102317664, w: 0.03289035}
        outSlope: {x: 0.0000000026792035, y: -1.2560426, z: 0.000000102317664, w: 0.03289035}
        tangentMode: 0
        weightedMode: 0
        inWeight: {x: 0.33333334, y: 0.33333334, z: 0.33333334, w: 0.33333334}
        outWeight: {x: 0.33333334, y: 0.33333334, z: 0.33333334, w: 0.33333334}
      m_PreInfinity: 2
      m_PostInfinity: 2
      m_RotationOrder: 4
    path: Magnets_2
  m_CompressedRotationCurves: []
  m_EulerCurves: []
  m_PositionCurves:
  - curve:
      serializedVersion: 2
      m_Curve:
      - serializedVersion: 3
        time: 0
        value: {x: -0, y: 0, z: 0}
        inSlope: {x: 0, y: 0, z: 0}
        outSlope: {x: 0, y: 0, z: 0}
        tangentMode: 0
        weightedMode: 0
        inWeight: {x: 0.33333334, y: 0.33333334, z: 0.33333334}
        outWeight: {x: 0.33333334, y: 0.33333334, z: 0.33333334}
      - serializedVersion: 3
        time: 1.0833334
        value: {x: -0, y: 0, z: 0}
        inSlope: {x: 0, y: 0, z: 0}
        outSlope: {x: 0, y: 0, z: 0}
        tangentMode: 0
        weightedMode: 0
        inWeight: {x: 0.33333334, y: 0.33333334, z: 0.33333334}
        outWeight: {x: 0.33333334, y: 0.33333334, z: 0.33333334}
      m_PreInfinity: 2
      m_PostInfinity: 2
      m_RotationOrder: 4
    path: Magnets_2
  m_ScaleCurves:
  - curve:
      serializedVersion: 2
      m_Curve:
      - serializedVersion: 3
        time: 0
        value: {x: 81.637276, y: 81.637276, z: 81.637276}
        inSlope: {x: 0, y: 0, z: 0}
        outSlope: {x: 0, y: 0, z: 0}
        tangentMode: 0
        weightedMode: 0
        inWeight: {x: 0.33333334, y: 0.33333334, z: 0.33333334}
        outWeight: {x: 0.33333334, y: 0.33333334, z: 0.33333334}
      - serializedVersion: 3
        time: 1.0833334
        value: {x: 81.637276, y: 81.637276, z: 81.637276}
        inSlope: {x: 0, y: 0, z: 0}
        outSlope: {x: 0, y: 0, z: 0}
        tangentMode: 0
        weightedMode: 0
        inWeight: {x: 0.33333334, y: 0.33333334, z: 0.33333334}
        outWeight: {x: 0.33333334, y: 0.33333334, z: 0.33333334}
      m_PreInfinity: 2
      m_PostInfinity: 2
      m_RotationOrder: 4
    path: Magnets_2
  m_FloatCurves:
  - curve:
      serializedVersion: 2
      m_Curve:
      - serializedVersion: 3
        time: 0
        value: 50
        inSlope: 0
        outSlope: 0
        tangentMode: 0
        weightedMode: 0
        inWeight: 0.33333334
        outWeight: 0.33333334
      - serializedVersion: 3
        time: 1.0833334
        value: 50
        inSlope: 0
        outSlope: 0
        tangentMode: 0
        weightedMode: 0
        inWeight: 0.33333334
        outWeight: 0.33333334
      m_PreInfinity: 2
      m_PostInfinity: 2
      m_RotationOrder: 4
    attribute: m_FocalLength
    path: Camera
    classID: 20
    script: {fileID: 0}
  m_PPtrCurves: []
  m_SampleRate: 24
  m_WrapMode: 1
  m_Bounds:
    m_Center: {x: -0.0000009536743, y: 0, z: 0.00000047683716}
    m_Extent: {x: 5.4683037, y: 1.6205171, z: 5.468303}
  m_ClipBindingConstant:
    genericBindings: []
    pptrCurveMapping: []
  m_AnimationClipSettings:
    serializedVersion: 2
    m_AdditiveReferencePoseClip: {fileID: 0}
    m_AdditiveReferencePoseTime: 0
    m_StartTime: 0
    m_StopTime: 1.0833334
    m_OrientationOffsetY: 0
    m_Level: 0
    m_CycleOffset: 0
    m_HasAdditiveReferencePose: 0
    m_LoopTime: 0
    m_LoopBlend: 0
    m_LoopBlendOrientation: 0
    m_LoopBlendPositionY: 0
    m_LoopBlendPositionXZ: 0
    m_KeepOriginalOrientation: 0
    m_KeepOriginalPositionY: 1
    m_KeepOriginalPositionXZ: 0
    m_HeightFromFeet: 0
    m_Mirror: 0
  m_EditorCurves: []
  m_EulerEditorCurves: []
  m_HasGenericRootTransform: 0
  m_HasMotionFloatCurves: 0
  m_Events: []
