%YAML 1.1
%TAG !u! tag:unity3d.com,2011:
--- !u!74 &7400000
AnimationClip:
  m_ObjectHideFlags: 0
  m_CorrespondingSourceObject: {fileID: 0}
  m_PrefabInstance: {fileID: 0}
  m_PrefabAsset: {fileID: 0}
  m_Name: No_OutLine_Swipe_ANIM
  serializedVersion: 6
  m_Legacy: 0
  m_Compressed: 0
  m_UseHighQualityCurve: 1
  m_RotationCurves: []
  m_CompressedRotationCurves: []
  m_EulerCurves: []
  m_PositionCurves: []
  m_ScaleCurves: []
  m_FloatCurves: []
  m_PPtrCurves:
  - curve:
    - time: 0
      value: {fileID: 21300000, guid: 335328ac6e940f0449215c4521b65ff1, type: 3}
    - time: 0.083333336
      value: {fileID: 21300000, guid: b1ce96393ad2a334982b4fb2804ac20a, type: 3}
    - time: 0.16666667
      value: {fileID: 21300000, guid: 77d468b3062709449b06de0e6e52d2d3, type: 3}
    - time: 0.25
      value: {fileID: 21300000, guid: c721597efb7762247bd84d415cf9d7e4, type: 3}
    - time: 0.33333334
      value: {fileID: 21300000, guid: 04db9bcdfd744d842823ef5bca74ec0d, type: 3}
    - time: 0.41666666
      value: {fileID: 21300000, guid: 23204f21d71b23e4d94bf4966fc62d9e, type: 3}
    - time: 0.5
      value: {fileID: 21300000, guid: bbd031dc85ee26d40a640340f081b544, type: 3}
    - time: 0.5833333
      value: {fileID: 21300000, guid: fa5621fe85155624e96928a63fb2c973, type: 3}
    - time: 0.6666667
      value: {fileID: 21300000, guid: d4c134ef3a10f164587de557ba1231e7, type: 3}
    - time: 0.75
      value: {fileID: 21300000, guid: ed8512493ebcff5478f186691ac43e65, type: 3}
    - time: 0.8333333
      value: {fileID: 21300000, guid: 9c816fd813f809548bb2c79320ffcc44, type: 3}
    - time: 0.9166667
      value: {fileID: 21300000, guid: d7ea918dcf4f92b4faafe6a7b8d667cd, type: 3}
    - time: 1
      value: {fileID: 21300000, guid: 07049657f060a1b49baf0449facdcde7, type: 3}
    - time: 1.0833334
      value: {fileID: 21300000, guid: 6215fd6bc1482f445879719d261a10d4, type: 3}
    - time: 1.1666666
      value: {fileID: 21300000, guid: dec8d1d6a8bc941458a748083b8d592f, type: 3}
    - time: 1.25
      value: {fileID: 21300000, guid: 3ff800fc45ad4f14ebaf3b52b76fedf8, type: 3}
    - time: 1.3333334
      value: {fileID: 21300000, guid: 4752bb0fd11c6fc43ba937ceac7a0228, type: 3}
    - time: 1.4166666
      value: {fileID: 21300000, guid: 55b11e66f0c59c4478da57756aba8a36, type: 3}
    - time: 1.5
      value: {fileID: 21300000, guid: bdf428f0d83903b439e94fe749bdea83, type: 3}
    - time: 1.5833334
      value: {fileID: 21300000, guid: 1f3ff59ae1230cb4ba0f7a105be5a9e1, type: 3}
    - time: 1.6666666
      value: {fileID: 21300000, guid: 28c969d76db92a743ab5f6e05c9165c1, type: 3}
    - time: 1.75
      value: {fileID: 21300000, guid: d44a6689393c9f34d94c0dbd2cfbad56, type: 3}
    - time: 1.8333334
      value: {fileID: 21300000, guid: dec6b757dca46f64f8fd68d29119c7ce, type: 3}
    - time: 1.9166666
      value: {fileID: 21300000, guid: 1ac2b8470e6bc47429dfcbec22dac241, type: 3}
    - time: 2
      value: {fileID: 21300000, guid: b4fd41b4a16179847b9569bcb9ecf8a9, type: 3}
    - time: 2.0833333
      value: {fileID: 21300000, guid: 2c379b095356ee448b5b70e9f705ce64, type: 3}
    - time: 2.1666667
      value: {fileID: 21300000, guid: 5a0831d348aacc14a8ba5b05d2229380, type: 3}
    attribute: m_Sprite
    path: 
    classID: 212
    script: {fileID: 0}
  m_SampleRate: 12
  m_WrapMode: 0
  m_Bounds:
    m_Center: {x: 0, y: 0, z: 0}
    m_Extent: {x: 0, y: 0, z: 0}
  m_ClipBindingConstant:
    genericBindings:
    - serializedVersion: 2
      path: 0
      attribute: 0
      script: {fileID: 0}
      typeID: 212
      customType: 23
      isPPtrCurve: 1
    pptrCurveMapping:
    - {fileID: 21300000, guid: 335328ac6e940f0449215c4521b65ff1, type: 3}
    - {fileID: 21300000, guid: b1ce96393ad2a334982b4fb2804ac20a, type: 3}
    - {fileID: 21300000, guid: 77d468b3062709449b06de0e6e52d2d3, type: 3}
    - {fileID: 21300000, guid: c721597efb7762247bd84d415cf9d7e4, type: 3}
    - {fileID: 21300000, guid: 04db9bcdfd744d842823ef5bca74ec0d, type: 3}
    - {fileID: 21300000, guid: 23204f21d71b23e4d94bf4966fc62d9e, type: 3}
    - {fileID: 21300000, guid: bbd031dc85ee26d40a640340f081b544, type: 3}
    - {fileID: 21300000, guid: fa5621fe85155624e96928a63fb2c973, type: 3}
    - {fileID: 21300000, guid: d4c134ef3a10f164587de557ba1231e7, type: 3}
    - {fileID: 21300000, guid: ed8512493ebcff5478f186691ac43e65, type: 3}
    - {fileID: 21300000, guid: 9c816fd813f809548bb2c79320ffcc44, type: 3}
    - {fileID: 21300000, guid: d7ea918dcf4f92b4faafe6a7b8d667cd, type: 3}
    - {fileID: 21300000, guid: 07049657f060a1b49baf0449facdcde7, type: 3}
    - {fileID: 21300000, guid: 6215fd6bc1482f445879719d261a10d4, type: 3}
    - {fileID: 21300000, guid: dec8d1d6a8bc941458a748083b8d592f, type: 3}
    - {fileID: 21300000, guid: 3ff800fc45ad4f14ebaf3b52b76fedf8, type: 3}
    - {fileID: 21300000, guid: 4752bb0fd11c6fc43ba937ceac7a0228, type: 3}
    - {fileID: 21300000, guid: 55b11e66f0c59c4478da57756aba8a36, type: 3}
    - {fileID: 21300000, guid: bdf428f0d83903b439e94fe749bdea83, type: 3}
    - {fileID: 21300000, guid: 1f3ff59ae1230cb4ba0f7a105be5a9e1, type: 3}
    - {fileID: 21300000, guid: 28c969d76db92a743ab5f6e05c9165c1, type: 3}
    - {fileID: 21300000, guid: d44a6689393c9f34d94c0dbd2cfbad56, type: 3}
    - {fileID: 21300000, guid: dec6b757dca46f64f8fd68d29119c7ce, type: 3}
    - {fileID: 21300000, guid: 1ac2b8470e6bc47429dfcbec22dac241, type: 3}
    - {fileID: 21300000, guid: b4fd41b4a16179847b9569bcb9ecf8a9, type: 3}
    - {fileID: 21300000, guid: 2c379b095356ee448b5b70e9f705ce64, type: 3}
    - {fileID: 21300000, guid: 5a0831d348aacc14a8ba5b05d2229380, type: 3}
  m_AnimationClipSettings:
    serializedVersion: 2
    m_AdditiveReferencePoseClip: {fileID: 0}
    m_AdditiveReferencePoseTime: 0
    m_StartTime: 0
    m_StopTime: 2.25
    m_OrientationOffsetY: 0
    m_Level: 0
    m_CycleOffset: 0
    m_HasAdditiveReferencePose: 0
    m_LoopTime: 1
    m_LoopBlend: 0
    m_LoopBlendOrientation: 0
    m_LoopBlendPositionY: 0
    m_LoopBlendPositionXZ: 0
    m_KeepOriginalOrientation: 0
    m_KeepOriginalPositionY: 1
    m_KeepOriginalPositionXZ: 0
    m_HeightFromFeet: 0
    m_Mirror: 0
  m_EditorCurves: []
  m_EulerEditorCurves: []
  m_HasGenericRootTransform: 0
  m_HasMotionFloatCurves: 0
  m_Events: []
