%YAML 1.1
%TAG !u! tag:unity3d.com,2011:
--- !u!114 &11400000
MonoBehaviour:
  m_ObjectHideFlags: 0
  m_CorrespondingSourceObject: {fileID: 0}
  m_PrefabInstance: {fileID: 0}
  m_PrefabAsset: {fileID: 0}
  m_GameObject: {fileID: 0}
  m_Enabled: 1
  m_EditorHideFlags: 0
  m_Script: {fileID: 11500000, guid: 4d6a22d4627a41346bcac008ba86ac53, type: 3}
  m_Name: Level 3
  m_EditorClassIdentifier: 
  map: {fileID: 2800000, guid: e670db9919447ca48aefa63e29438b5a, type: 3}
  FloorMat: {fileID: 2100000, guid: bdd2c950d9d5d744f8e786e38204d0a2, type: 2}
  BackgroundSprite: {fileID: 21300000, guid: 75ca13a1e409b0747aecc3c43ac6b525, type: 3}
  LevelNameColor: {r: 0.7882353, g: 0.62352943, b: 0.5058824, a: 1}
  LevelSettingsColor: {r: 0.78823537, g: 0.62352943, b: 0.5058824, a: 0.69803923}
  YouWinTextColor: {r: 0.9019608, g: 0.5921569, b: 0.24705882, a: 1}
  TapForNextLevel: {r: 0.90196085, g: 0.5921569, b: 0.24705884, a: 1}
