%YAML 1.1
%TAG !u! tag:unity3d.com,2011:
--- !u!114 &11400000
MonoBehaviour:
  m_ObjectHideFlags: 0
  m_CorrespondingSourceObject: {fileID: 0}
  m_PrefabInstance: {fileID: 0}
  m_PrefabAsset: {fileID: 0}
  m_GameObject: {fileID: 0}
  m_Enabled: 1
  m_EditorHideFlags: 0
  m_Script: {fileID: 11500000, guid: 4d6a22d4627a41346bcac008ba86ac53, type: 3}
  m_Name: Level 4
  m_EditorClassIdentifier: 
  map: {fileID: 2800000, guid: 516c8efcb4c790044ace10763110d844, type: 3}
  FloorMat: {fileID: 2100000, guid: 9d4eeba078eb6504896951861547801d, type: 2}
  BackgroundSprite: {fileID: 21300000, guid: b20ce97f6fbb5b34ba3401f81cd7e981, type: 3}
  LevelNameColor: {r: 0.49803922, g: 0.7058824, b: 0.77254903, a: 1}
  LevelSettingsColor: {r: 0.49803925, g: 0.7058824, b: 0.7725491, a: 0.69803923}
  YouWinTextColor: {r: 0.003921569, g: 0.6862745, b: 0.90588236, a: 1}
  TapForNextLevel: {r: 0.003921569, g: 0.6862745, b: 0.9058824, a: 1}
